{
  "basics": [
    "welcome",
    "square",
    "min",
    "calculate",
    "circle-perimeter",
    "circle-area"
  ],
  "numbers": [
    "addition",
    "is-even",
    "leap-years",
    "fibonacci",
    "factorial"
  ],
  "strings": [
    "upper-first", 
    "words-count", 
    "vowel-count", 
    "invert", 
    "reverse",
    "is-pal",
    "repeat",
    "anagram",
    "longest-word",
    "max-char",
    "steps",
    "caesar-cipher",
    "pyramid",
    "pig-latin"
  ],
  "arrays": [
    "remove",
    "chunk",
    "spiral-matrix"
  ]
}
